<?xml version="1.0" encoding="utf-8"?>
<!-- Generator: Adobe Illustrator 20.1.0, SVG Export Plug-In . SVG Version: 6.00 Build 0)  -->
<svg version="1.1" id="Ñëîé_1" xmlns="http://www.w3.org/2000/svg" xmlns:xlink="http://www.w3.org/1999/xlink" x="0px" y="0px"
	 viewBox="0 0 1024 844.8" style="enable-background:new 0 0 1024 844.8;" xml:space="preserve">
<style type="text/css">
	.st0{fill:#3E494D;}
	.st1{fill:#D8BF95;}
	.st2{fill:#ECBD6F;}
	.st3{fill:#EDD0A9;}
	.st4{fill:#9B4548;}
	.st5{fill:#ED7775;}
	.st6{fill:#C1575F;}
	.st7{fill:#A8A39A;}
</style>
<circle class="st0" cx="512" cy="500" r="344.9"/>
<path class="st0" d="M167.2,500c0,190.5,154.4,344.9,344.9,344.9S856.9,690.4,856.9,500H167.2z"/>
<g>
	<polygon class="st1" points="551.1,323.8 450.5,319.6 454.1,386.7 501.6,419.6 501.8,419.6 501.8,388 501.8,419.6 545.8,410 	"/>
	<path class="st1" d="M1023.2,449.3c-4.2-8.7-30.8,3.9-30.8,3.9s17.3-8.1,9.8-15.3c-7.5-7.2-27.9,5.7-44,15.6s-53.6,21-53.6,21
		s20.4-17.1,15-24.3c-5.4-7.2-21.6-1.8-35.9,8.7c-14.4,10.5-30.2,10.9-49.3,13.3c-19.2,2.4-35.1,37.1-57.1,75.1
		c-22,37.9-71.1,94.3-71.1,94.3c0-30.8-8-77.5-9.2-88.3c-1.2-10.8,6-44.7,6.4-49.5c0.4-4.8-6.4-22.4-6.4-22.4L639,514.9
		c0,0-9.2,216.9-8,220.5c1.2,3.6,26.8,40.7,43.9,40.3c17.2-0.4,51.1-39.1,68.5-59.5c17.4-20.4,51.5-95.8,61.1-118.6
		s34.7-52.4,38.3-57.5c1.2-1.7,5.7-2.7,12-3.5c1.3-12,1.9-24.2,1.9-36.6c0,12.3-0.7,24.5-1.9,36.6c10.4-1.2,25.8-1.7,40.1-2.8
		c1.4-13.5,2.2-27.2,2.2-41c0,13.9-0.7,27.5-2.2,41c3.5-0.3,7-0.6,10.3-1c24.8-2.8,68.7-25,81.3-30.8c12.6-5.8,6.4-15.8,6.4-15.8
		c31.4-15.2,21-25,21-25S1027.4,457.9,1023.2,449.3z"/>
	<g>
		<path class="st2" d="M475.6,66c0,0-19.8-65.2,34.8-66c54.6-0.7,165.4,50.4,102,279.2c0,0-9.6-188.3-96.3-212.4L475.6,66z"/>
		<g>
			<g>
				<path class="st1" d="M571.3,114.3c-18.2-19.6-42.3-31.8-69.5-31.8l0,276.8c14,0,27.7-8,40.5-20.4
					c24.8-24.1,49.9-69.6,58.3-105.2C610.7,190.8,599.9,145.2,571.3,114.3z"/>
				<path class="st3" d="M501.8,82.5L501.8,82.5c-26.9,0-50.8,12-68.9,31.2c-29,30.9-40.1,76.8-29.9,120
					c8.4,35.8,33.7,81.6,58.7,105.7c12.6,12.2,26.2,20,40,20h0L501.8,82.5C501.8,82.5,501.8,82.5,501.8,82.5z"/>
			</g>
			<ellipse class="st3" cx="399.8" cy="220.9" rx="17.6" ry="18.3"/>
			<ellipse class="st1" cx="603.8" cy="220.9" rx="17.6" ry="18.3"/>
		</g>
		<path class="st2" d="M401.5,202.6c0,0-51.4-143.5,96.3-146.8c147.7-3.2,107.6,146.8,107.6,146.8S590.1,95.5,501.8,100.8
			C413.5,106.2,401.5,202.6,401.5,202.6z"/>
	</g>
	<path class="st1" d="M216.3,579.6c17.4,53.9,61.5,181.6,113.2,184.5c15.6,0.9,22.5-15.3,30.6-22.2c0,0,18.3-12.9,18.9-31.7
		c0.6-18.9-6.9-193.5-6.9-193.5l-72.9-20.2l-2.4,121c0,0-46.7-72.3-61.1-105c-14.4-32.7-35.9-55.9-66.3-57.5
		c-30.4-1.6-81.3-25.2-91.5-15.9c-10.2,9.3,17.4,25.8,50,30.6c0,0-47.9,8.7-66.8,6.3c0,0-9.6-9.9-23.7-8.4c0,0-25.8-28.8-34.1-20.4
		c-8.4,8.4,1.8,12,1.8,12s-3,8.4,8.1,14.7c11.1,6.3,21.9,26.4,42.5,33.5c20.1,7,50.8,16.4,72.6,19.6c-1-11.3-1.5-22.7-1.5-34.2
		c0,11.5,0.5,22.9,1.5,34.2c0.6,0.1,1.1,0.2,1.7,0.2c9.6,1.3,24,1.1,38.7,5.1c-1-10.7-1.5-21.4-1.5-32.3c0,10.9,0.5,21.7,1.5,32.3
		C187.4,537.4,206.5,549.3,216.3,579.6z"/>
	<path class="st4" d="M376.8,363.3c-55.1-7.8-73.1,40.1-73.1,40.1l-32.3,91.1l96.4,29c-0.4-4.7-0.7-9.4-1.1-14.2l4.4,15.2l-3.3-1
		c10,132.3-2.4,229.1-13.2,283.4c44.4,22.8,94.3,36.3,147.2,37.8V401.8C467.9,398.2,428.7,370.6,376.8,363.3z"/>
	<path class="st5" d="M371,524.4l-4.4-15.2c0.4,4.8,0.8,9.5,1.1,14.2L371,524.4z"/>
	<path class="st5" d="M644.6,516.7l-3.9,12l2.8-0.5C644.2,520.7,644.6,516.7,644.6,516.7z"/>
	<path class="st5" d="M643.5,528.1l-2.8,0.5l3.9-12C644.6,516.7,644.2,520.7,643.5,528.1l83.4-14.9c-28-75.9-46.9-133.2-95.5-135
		c-48.5-1.8-88,24.6-123.4,24c-2,0-4.1-0.2-6.2-0.4v442.8c3.4,0.1,6.8,0.2,10.2,0.2c44.1,0,86.2-8.3,124.9-23.3
		C629,704,639.9,567.9,643.5,528.1z"/>
	<path class="st4" d="M371,524.4l-4.4-15.2c0.4,4.8,0.8,9.5,1.1,14.2L371,524.4z"/>
	<path class="st6" d="M643.5,528.1l-2.8,0.5l3.9-12C644.6,516.7,644.2,520.7,643.5,528.1l83.4-14.9c-28-75.9-46.9-133.2-95.5-135
		c-48.5-1.8-88,24.6-123.4,24c-2,0-4.1-0.2-6.2-0.4v442.8c3.4,0.1,6.8,0.2,10.2,0.2c44.1,0,86.2-8.3,124.9-23.3
		C629,704,639.9,567.9,643.5,528.1z"/>
	<path class="st6" d="M644.6,516.7l-3.9,12l2.8-0.5C644.2,520.7,644.6,516.7,644.6,516.7z"/>
	<polygon class="st7" points="823.1,573.8 779.6,535.6 768.4,555.6 810.3,591.9 	"/>
</g>
</svg>
